DS 362 Homework 8
…
In the header, add your name as the author.

Please complete and turn in this assignment as a Quarto notebook.

Lab

Principal Components Analysis

Here we will apply PCA to the USArrests data set. We begin by turning USArrests into a tibble and move the rownames into a column.

USArrests <- as_tibble(USArrests, rownames = "state")
USArrests

# A tibble: 50 × 5
   state       Murder Assault UrbanPop  Rape
   <chr>        <dbl>   <int>    <int> <dbl>
 1 Alabama       13.2     236       58  21.2
 2 Alaska        10       263       48  44.5
 3 Arizona        8.1     294       80  31  
 4 Arkansas       8.8     190       50  19.5
 5 California     9       276       91  40.6
 6 Colorado       7.9     204       78  38.7
 7 Connecticut    3.3     110       77  11.1
 8 Delaware       5.9     238       72  15.8
 9 Florida       15.4     335       80  31.9
10 Georgia       17.4     211       60  25.8
# ℹ 40 more rows
…
extract_centroids(kmeans_fit)

# A tibble: 3 × 3
  .cluster     V1      V2
  <fct>     <dbl>   <dbl>
1 Cluster_1 0.234  0.0441
2 Cluster_2 2.54  -2.49  
3 Cluster_3 2.82  -5.01  

and extract_cluster_assignment()

extract_cluster_assignment(kmeans_fit)

# A tibble: 50 × 1
   .cluster 
   <fct>    
 1 Cluster_1
 2 Cluster_1
 3 Cluster_1
 4 Cluster_1
 5 Cluster_1
 6 Cluster_1
 7 Cluster_1
 8 Cluster_1
 9 Cluster_1
10 Cluster_1
# ℹ 40 more rows

prediction in a clustering model isn’t well defined. But we can think of it as “what cluster would these observations be in if they were part of the data set”. For the k-means case, it looks at which centroid these observations are closest to.

predict(kmeans_fit, new_data = x_df)

# A tibble: 50 × 1
   .pred_cluster
   <fct>        
 1 Cluster_1    
 2 Cluster_1    
 3 Cluster_1    
 4 Cluster_1    
 5 Cluster_1    
 6 Cluster_1    
 7 Cluster_1    
 8 Cluster_1    
 9 Cluster_1    
10 Cluster_1    
# ℹ 40 more rows

Lastly, we can see what cluster each observation belongs to by using augment(), which does the same thing as predict() but add it to the orginial data set. This makes it handy for EDA and plotting the results.

augment(kmeans_fit, new_data = x_df)

# A tibble: 50 × 3
        V1     V2 .pred_cluster
     <dbl>  <dbl> <fct>        
 1 -0.897  -0.838 Cluster_1    
 2  0.185   2.07  Cluster_1    
 3  1.59   -0.562 Cluster_1    
 4 -1.13    1.28  Cluster_1    
 5 -0.0803 -1.05  Cluster_1    
 6  0.132  -1.97  Cluster_1    
 7  0.708  -0.323 Cluster_1    
 8 -0.240   0.936 Cluster_1    
 9  1.98    1.14  Cluster_1    
10 -0.139   1.67  Cluster_1    
# ℹ 40 more rows
…
